PredictedWinner1(1) Test1

PredictedWinner1(2) Test2
PredictedWinner2(2) Test2

PredictedWinner1(1) Test3

PredictedWinner1(1) Test4

PredictedWinner1(1) Test5

PredictedWinner1(3) Test6
PredictedWinner2(3) Test6
PredictedWinner3(3) Test6

PredictedWinner1(1) Test7

PredictedWinner1(1) Test8(Long)
